/Users/Sean/Documents/Projects/g3w14/src/main/java/com/g3w14/action/ManagementBean.java
/Users/Sean/Documents/Projects/g3w14/src/main/java/com/g3w14/persistence/BookDAOImp.java
/Users/Sean/Documents/Projects/g3w14/src/main/java/com/g3w14/persistence/CustomerReviewDAO.java
/Users/Sean/Documents/Projects/g3w14/src/main/java/com/g3w14/action/CheckoutBean.java
/Users/Sean/Documents/Projects/g3w14/src/main/java/com/g3w14/data/TaxBean.java
/Users/Sean/Documents/Projects/g3w14/src/main/java/com/g3w14/persistence/TaxDAOImp.java
/Users/Sean/Documents/Projects/g3w14/src/main/java/com/g3w14/persistence/CustomerReviewDAOImp.java
/Users/Sean/Documents/Projects/g3w14/src/main/java/com/g3w14/persistence/InvoiceDAO.java
/Users/Sean/Documents/Projects/g3w14/src/main/java/com/g3w14/persistence/ClientDAO.java
/Users/Sean/Documents/Projects/g3w14/src/main/java/com/g3w14/action/LoginBean.java
/Users/Sean/Documents/Projects/g3w14/src/main/java/com/g3w14/data/SurveyBean.java
/Users/Sean/Documents/Projects/g3w14/src/main/java/com/g3w14/persistence/AdvertisementDAOImp.java
/Users/Sean/Documents/Projects/g3w14/src/main/java/com/g3w14/persistence/BookDAO.java
/Users/Sean/Documents/Projects/g3w14/src/main/java/com/g3w14/action/DisplayBooksBean.java
/Users/Sean/Documents/Projects/g3w14/src/main/java/com/g3w14/data/ClientBean.java
/Users/Sean/Documents/Projects/g3w14/src/main/java/com/g3w14/persistence/SurveyDAO.java
/Users/Sean/Documents/Projects/g3w14/src/main/java/com/g3w14/action/InscrireBean.java
/Users/Sean/Documents/Projects/g3w14/src/main/java/com/g3w14/persistence/SurveyDAOImp.java
/Users/Sean/Documents/Projects/g3w14/src/main/java/com/g3w14/data/CustomerReviewBean.java
/Users/Sean/Documents/Projects/g3w14/src/main/java/com/g3w14/bundles/LocaleChanger.java
/Users/Sean/Documents/Projects/g3w14/src/main/java/com/g3w14/action/PasswordValidator.java
/Users/Sean/Documents/Projects/g3w14/src/main/java/com/g3w14/data/InvoiceBean.java
/Users/Sean/Documents/Projects/g3w14/src/main/java/com/g3w14/persistence/ClientDAOImp.java
/Users/Sean/Documents/Projects/g3w14/src/main/java/com/g3w14/action/CartBean.java
/Users/Sean/Documents/Projects/g3w14/src/main/java/com/g3w14/data/ShippingInfoBean.java
/Users/Sean/Documents/Projects/g3w14/src/main/java/com/g3w14/persistence/InvoiceDetailDAO.java
/Users/Sean/Documents/Projects/g3w14/src/main/java/com/g3w14/data/AdvertisementBean.java
/Users/Sean/Documents/Projects/g3w14/src/main/java/com/g3w14/persistence/TaxDAO.java
/Users/Sean/Documents/Projects/g3w14/src/main/java/com/g3w14/persistence/AdvertisementDAO.java
/Users/Sean/Documents/Projects/g3w14/src/main/java/com/g3w14/data/PasswordPBKDF2.java
/Users/Sean/Documents/Projects/g3w14/src/main/java/com/g3w14/action/reviewBean.java
/Users/Sean/Documents/Projects/g3w14/src/main/java/com/g3w14/data/BookBean.java
/Users/Sean/Documents/Projects/g3w14/src/main/java/com/g3w14/persistence/InvoiceDAOImp.java
/Users/Sean/Documents/Projects/g3w14/src/main/java/com/g3w14/persistence/InvoiceDetailDAOImp.java
/Users/Sean/Documents/Projects/g3w14/src/main/java/com/g3w14/data/InvoiceDetailBean.java
